<?xml version="1.0" standalone="no"?>
<!DOCTYPE svg PUBLIC "-//W3C//DTD SVG 1.1//EN" "http://www.w3.org/Graphics/SVG/1.1/DTD/svg11.dtd">
<svg width="1367mm" height="752mm" viewBox="-638 -752 1367 752" xmlns="http://www.w3.org/2000/svg" version="1.1">
<title>OpenSCAD Model</title>
<path d="
M 663.242,-704.07 L 654.937,-712.049 L 644.909,-721.764 L 643.454,-722.423 L 615.58,-737.474 L 600.77,-745.612
 L 580.025,-748.206 L 561.909,-750.884 L 556.63,-751.572 L 534.581,-748.206 L 529.435,-747.513 L 512.491,-745.275
 L 505.065,-741.538 L 468.352,-721.733 L 461.284,-717.515 L 456.478,-713.672 L 444.717,-704.07 L 441.138,-700.007
 L 470,-700.007 L 470,-712.714 L 475.2,-712.714 L 475.2,-700.007 L 540,-700.007 L 540,-724.913
 L 545.2,-724.913 L 545.2,-700.007 L 650,-700.007 L 650,-708.416 L 655.2,-708.416 L 655.2,-700.007
 L 665.763,-700.007 z
M 697.238,-604.07 L 690.422,-611.61 L 660.157,-639.55 L 650.609,-648.206 L 646.283,-651.967 L 632.748,-657.995
 L 619.015,-665.428 L 602.143,-675.713 L 578.662,-677.995 L 558.004,-680.773 L 534.881,-678.49 L 513.865,-675.645
 L 491.1,-665.867 L 469.725,-652.241 L 464.09,-648.206 L 456.302,-643.988 L 447.319,-639.709 L 425.586,-626.791
 L 403.538,-620.207 L 381.447,-611.032 L 363.761,-614.556 L 353.833,-616.901 L 337.308,-621.774 L 315.976,-623.634
 L 293.168,-627.342 L 272.195,-628.201 L 249.029,-630.391 L 228.414,-630.262 L 204.89,-630.871 L 184.633,-628.803
 L 160.75,-626.354 L 140.852,-618.578 L 116.611,-607.539 L 112.19,-604.07 L 108.435,-600.008 L 120,-600.008
 L 120,-605.725 L 125.2,-605.725 L 125.2,-600.008 L 220,-600.008 L 220,-615.24 L 225.2,-615.24
 L 225.2,-600.008 L 350,-600.008 L 350,-609.016 L 355.2,-609.016 L 355.2,-600.008 L 470,-600.007
 L 470,-627.866 L 475.2,-627.866 L 475.2,-600.007 L 540,-600.007 L 540,-639.754 L 545.2,-639.754
 L 545.2,-600.007 L 650,-600.007 L 650,-624.367 L 655.2,-624.367 L 655.2,-600.007 L 699.107,-600.007
 z
M -5,-540.007 L -5,-620.752 L -50.9721,-620.596 L -55,-619.801 L -55,-579.901 L -60.2,-579.901
 L -60.2,-618.775 L -105,-609.934 L -105,-574.967 L -110.2,-574.967 L -110.2,-608.908 L -123.641,-606.256
 L -125.041,-606.044 L -165.766,-588.39 L -166.336,-588.206 L -184.359,-582.744 L -195,-579.434 L -195,-559.717
 L -200.2,-559.717 L -200.2,-578.189 L -273.178,-580.215 L -285,-581.928 L -285,-561.341 L -290.2,-561.341
 L -290.2,-582.682 L -314.196,-586.158 L -315.771,-586.401 L -317.478,-586.941 L -321.752,-588.206 L -347.246,-595.501
 L -355,-595.715 L -355,-567.929 L -360.2,-567.929 L -360.2,-595.858 L -405,-597.047 L -405,-568.593
 L -410.2,-568.593 L -410.2,-597.185 L -421.315,-597.48 L -455,-588.735 L -455,-564.367 L -460.2,-564.367
 L -460.2,-587.35 L -465.952,-585.793 L -471.291,-584.265 L -472.602,-584.058 L -495.384,-580.641 L -523.006,-569.59
 L -555,-556.832 L -555,-548.416 L -560.2,-548.416 L -560.2,-554.758 L -569.452,-551.068 L -580.594,-544.07
 L -584.482,-540.007 z
M 705.566,-504.07 L 703.563,-506.283 L 691.04,-520.189 L 665.491,-543.453 L 660.265,-548.206 L 658.639,-549.635
 L 646.901,-559.887 L 640.238,-563.103 L 602.761,-579.932 L 596.457,-580.587 L 558.622,-584.338 L 552.676,-583.734
 L 514.483,-580.028 L 508.895,-577.464 L 470.344,-560.993 L 452.386,-548.206 L 448.964,-546.402 L 426.204,-534.141
 L 421.333,-532.717 L 382.065,-521.112 L 377.552,-522.038 L 337.926,-530.094 L 333.771,-530.379 L 293.786,-534.006
 L 289.99,-534.084 L 249.647,-535.861 L 246.209,-535.802 L 205.508,-535.661 L 202.428,-535.413 L 161.369,-531.318
 L 158.647,-530.358 L 117.229,-514.26 L 104.762,-504.512 L 104.185,-504.07 L 102.495,-502.22 L 100.443,-500.008
 L 120,-500.008 L 120,-508.682 L 125.2,-508.682 L 125.2,-500.008 L 220,-500.008 L 220,-517.87
 L 225.2,-517.87 L 225.2,-500.008 L 350,-500.008 L 350,-513.822 L 355.2,-513.822 L 355.2,-500.008
 L 470,-500.007 L 470,-531.538 L 475.2,-531.538 L 475.2,-500.007 L 540,-500.007 L 540,-541.506
 L 545.2,-541.506 L 545.2,-500.007 L 650,-500.007 L 650,-528.593 L 655.2,-528.593 L 655.2,-500.007
 L 707.428,-500.007 z
M -5,-450.007 L -5,-536.294 L -49.5298,-536.444 L -55,-535.663 L -55,-492.856 L -60.2,-492.856
 L -60.2,-534.92 L -93.4433,-530.171 L -105,-527.983 L -105,-489.025 L -110.2,-489.025 L -110.2,-526.999
 L -123.598,-524.463 L -169.259,-514.658 L -193.611,-508.033 L -195,-507.704 L -195,-478.894 L -200.2,-478.894
 L -200.2,-507.392 L -240.525,-512.483 L -248.43,-514.025 L -271.736,-520.125 L -285,-522.027 L -285,-486.404
 L -290.2,-486.404 L -290.2,-522.773 L -320.892,-527.174 L -345.804,-531.845 L -355,-532.004 L -355,-491.057
 L -360.2,-491.057 L -360.2,-532.094 L -396.708,-532.724 L -405,-532.89 L -405,-491.506 L -410.2,-491.506
 L -410.2,-532.993 L -419.873,-533.186 L -455,-529.489 L -455,-489.754 L -460.2,-489.754 L -460.2,-528.942
 L -472.524,-527.645 L -493.941,-524.938 L -508.753,-518.712 L -555,-499.796 L -555,-474.913 L -560.2,-474.913
 L -560.2,-497.733 L -562.587,-496.873 L -568.01,-494.946 L -583.074,-485.618 L -633.895,-454.07 L -637.057,-450.007
 z
M 704.468,-404.07 L 694.18,-415.44 L 691.727,-418.164 L 686.723,-422.72 L 658.697,-448.206 L 649.978,-455.872
 L 647.587,-457.959 L 611.365,-475.445 L 603.448,-479 L 567.584,-482.723 L 559.309,-483.544 L 523.803,-479.936
 L 515.17,-479.099 L 480.022,-462.969 L 471.03,-459.128 L 455.691,-448.206 L 432.36,-435.909 L 426.891,-432.963
 L 392.46,-422.893 L 382.752,-420.024 L 348.679,-427.015 L 338.612,-429.061 L 304.898,-431.373 L 294.473,-432.319
 L 261.117,-433 L 250.334,-433.475 L 217.336,-432.906 L 206.195,-432.867 L 173.555,-430.235 L 162.055,-429.088
 L 129.774,-417.698 L 117.916,-413.089 L 114.347,-410.298 L 106.2,-404.07 L 102.49,-400.008 L 120,-400.008
 L 120,-407.963 L 125.2,-407.963 L 125.2,-400.008 L 220,-400.008 L 220,-416.526 L 225.2,-416.526
 L 225.2,-400.008 L 350,-400.008 L 350,-413.374 L 355.2,-413.374 L 355.2,-400.008 L 470,-400.007
 L 470,-430.459 L 475.2,-430.459 L 475.2,-400.007 L 540,-400.007 L 540,-441.057 L 545.2,-441.057
 L 545.2,-400.007 L 650,-400.007 L 650,-427.929 L 655.2,-427.929 L 655.2,-400.007 L 706.33,-400.007
 z
M -5,-360.008 L -5,-404.736 L -48.5684,-405.52 L -49.7453,-405.259 L -55,-404.032 L -55,-382.143
 L -60.2,-382.143 L -60.2,-402.818 L -70.9926,-400.297 L -105,-392.216 L -105,-376.205 L -110.2,-376.205
 L -110.2,-390.98 L -122.637,-388.025 L -123.674,-387.68 L -123.855,-387.658 L -195,-380.663 L -195,-370.735
 L -200.2,-370.735 L -200.2,-381.35 L -204.426,-382.424 L -270.774,-401.787 L -285,-404.464 L -285,-382.765
 L -290.2,-382.765 L -290.2,-405.443 L -304.876,-408.206 L -314.955,-410.53 L -344.843,-420.287 L -351.304,-420.448
 L -355,-420.608 L -355,-390.459 L -360.2,-390.459 L -360.2,-420.832 L -405,-422.767 L -405,-391.538
 L -410.2,-391.538 L -410.2,-422.991 L -418.911,-423.368 L -427.12,-422.363 L -455,-415.604 L -455,-387.866
 L -460.2,-387.866 L -460.2,-414.343 L -473.878,-411.026 L -489.396,-408.206 L -492.98,-407.742 L -500.097,-405.644
 L -502.936,-404.649 L -555,-385.319 L -555,-372.714 L -560.2,-372.714 L -560.2,-383.389 L -567.049,-380.846
 L -585.008,-369.944 L -594.578,-364.07 L -597.053,-360.847 L -597.847,-360.007 z
M 689.827,-304.07 L 672.234,-321.018 L 648.549,-344.065 L 639.155,-348.206 L 622.066,-359.12 L 614.723,-364.31
 L 604.41,-369.307 L 570.942,-374.299 L 560.27,-375.425 L 527.161,-369.612 L 516.131,-368.517 L 496.363,-356.033
 L 481.511,-348.206 L 471.992,-344.112 L 448.575,-328.243 L 435.753,-320.618 L 427.853,-316.483 L 411.113,-311.811
 L 386.319,-304.07 L 383.713,-303.083 L 379.972,-304.07 L 378.483,-304.49 L 352.038,-311.017 L 339.574,-313.619
 L 308.257,-315.717 L 295.435,-316.643 L 264.476,-319.809 L 251.295,-320.116 L 220.695,-326.779 L 207.156,-326.556
 L 176.914,-331.429 L 174.027,-331.391 L 163.085,-330.494 L 130.246,-325.781 L 118.946,-321.761 L 116.055,-319.544
 L 93.2434,-304.07 L 89.7005,-300.008 L 120,-300.008 L 120,-311.993 L 125.2,-311.993 L 125.2,-300.008
 L 220,-300.008 L 220,-313.401 L 225.2,-313.401 L 225.2,-300.008 L 350,-300.008 L 350,-305.749
 L 355.2,-305.749 L 355.2,-300.008 L 470,-300.007 L 470,-322.765 L 475.2,-322.765 L 475.2,-300.007
 L 540,-300.007 L 540,-336.404 L 545.2,-336.404 L 545.2,-300.007 L 650,-300.007 L 650,-321.341
 L 655.2,-321.341 L 655.2,-300.007 L 691.993,-300.007 z
M -263.589,-272.219 L -267.576,-274.07 L -269.057,-274.806 L -274.451,-276.793 L -285,-280 L -285,-275.749
 L -290.2,-275.749 L -290.2,-281.498 L -343.126,-296.424 L -355,-296.649 L -355,-283.374 L -360.2,-283.374
 L -360.199,-296.748 L -362.288,-296.787 L -405,-297.55 L -405,-283.822 L -410.2,-283.822 L -410.2,-297.643
 L -417.194,-297.768 L -434.85,-292.879 L -445.905,-290.096 L -455,-288.031 L -455,-279.016 L -460.2,-279.016
 L -460.2,-286.851 L -491.263,-279.8 L -503.16,-274.07 L -505.358,-273.096 L -509.975,-270.008 L -260.4,-270.008
 z
M 685.829,-204.07 L 679.749,-210.093 L 649.854,-239.578 L 628.116,-248.206 L 624.297,-249.825 L 605.715,-260.56
 L 603.645,-260.554 L 561.575,-264.588 L 559.864,-264.025 L 550.361,-259.952 L 523.343,-248.622 L 521.829,-248.206
 L 517.367,-247.219 L 488.269,-229.232 L 474.013,-220.709 L 473.228,-220.373 L 457.465,-205.814 L 455.071,-204.07
 L 452.544,-200.007 L 470,-200.007 L 470,-210.735 L 475.2,-210.735 L 475.2,-200.007 L 540,-200.007
 L 540,-228.894 L 545.2,-228.894 L 545.2,-200.007 L 650,-200.007 L 650,-219.717 L 655.2,-219.717
 L 655.2,-200.007 L 687.683,-200.007 z
M 244.918,-204.07 L 218.453,-225.936 L 212.504,-230.746 L 209.617,-231.929 L 208.461,-232.175 L 176.604,-247.43
 L 173.722,-248.206 L 164.322,-253.307 L 158.604,-253.56 L 120.182,-256.776 L 97.6114,-248.206 L 83.981,-242.436
 L 76.0432,-238.696 L 43.8728,-204.07 L 42.6675,-200.008 L 80,-200.008 L 80,-221.476 L 85.2,-221.476
 L 85.2,-200.008 L 120,-200.008 L 120,-228.388 L 125.2,-228.388 L 125.2,-200.008 L 220,-200.008
 L 220,-212.354 L 225.2,-212.354 L 225.2,-200.008 L 249.018,-200.008 z
M -5,-233.601 L -45.0658,-238.675 L -55,-237.328 L -55,-208.664 L -60.2,-208.664 L -60.2,-236.623
 L -105,-230.55 L -105,-205.275 L -110.2,-205.275 L -110.2,-229.845 L -119.134,-228.636 L -120.263,-228.206
 L -139.012,-216.883 L -161.094,-214.011 L -193.203,-202.92 L -195,-203.379 L -195,-192.354 L -200.2,-192.354
 L -200.2,-204.709 L -201.08,-204.934 L -212.981,-207.677 L -267.272,-201.514 L -285,-205.739 L -285,-193.401
 L -290.2,-193.401 L -290.2,-206.802 L -297.455,-207.618 L -341.409,-212.146 L -355,-212.798 L -355,-196.526
 L -360.2,-196.526 L -360.2,-213.048 L -373.272,-213.675 L -405,-215.449 L -405,-197.87 L -410.2,-197.87
 L -410.2,-215.74 L -415.478,-216.035 L -442.114,-212.13 L -455,-210.48 L -455,-195.24 L -460.2,-195.24
 L -460.2,-209.814 L -489.477,-206.065 L -524.93,-191.791 L -543.023,-184.07 L -550.315,-180.008 L -5,-180.008
 z
M 253.836,-101.624 L 253.049,-104.07 L 247.599,-112.719 L 222.623,-148.206 L 218.581,-151.819 L 209.697,-159.784
 L 201.426,-163.362 L 165.558,-180.886 L 157.645,-181.436 L 121.419,-184.22 L 113.864,-182.405 L 77.2794,-172.634
 L 51.1214,-153.102 L 44.5275,-148.206 L 33.14,-135.578 L 16.1529,-110.364 L 11.9448,-104.07 L 11.0559,-100.008
 L 80,-100.008 L 80,-137.375 L 85.2,-137.375 L 85.2,-100.008 L 120,-100.008 L 120,-142.11
 L 125.2,-142.11 L 125.2,-100.008 L 220,-100.008 L 220,-125.275 L 225.2,-125.275 L 225.2,-100.008
 L 254.506,-100.008 z
M 716.87,-104.07 L 707.86,-115.844 L 695.229,-132.011 L 678.975,-148.206 L 667.473,-156.951 L 651.09,-169.669
 L 639.235,-172.558 L 606.951,-183.003 L 595.455,-182.98 L 562.811,-182.945 L 551.674,-180.178 L 518.672,-169.325
 L 501.585,-155.968 L 491.448,-148.206 L 490.9,-147.656 L 474.533,-131.762 L 460.49,-113.924 L 452.989,-104.07
 L 451.485,-100.007 L 470,-100.007 L 470,-116.205 L 475.2,-116.205 L 475.2,-100.007 L 540,-100.007
 L 540,-139.025 L 545.2,-139.025 L 545.2,-100.007 L 650,-100.007 L 650,-134.967 L 655.2,-134.967
 L 655.2,-100.007 L 718.198,-100.007 z
M -5,-175.725 L -43.7233,-179.456 L -55,-178.493 L -55,-134.246 L -60.2,-134.246 L -60.2,-178.048
 L -105,-174.22 L -105,-132.11 L -110.2,-132.11 L -110.2,-173.775 L -117.778,-173.128 L -191.833,-148.353
 L -195,-146.776 L -195,-118.388 L -200.2,-118.388 L -200.2,-144.186 L -208.281,-140.162 L -212.186,-138.213
 L -212.204,-138.206 L -212.277,-138.184 L -218.532,-136.231 L -265.967,-115.77 L -275.916,-115.382 L -285,-113.915
 L -285,-101.993 L -290.2,-101.993 L -290.2,-113.075 L -340.035,-105.026 L -351.732,-105.605 L -355,-105.699
 L -355,-97.963 L -360.2,-97.963 L -360.2,-105.848 L -405,-107.137 L -405,-98.6821 L -410.2,-98.6821
 L -410.2,-107.286 L -414.104,-107.399 L -427.548,-105.75 L -455,-101.359 L -455,-95.7252 L -460.2,-95.7252
 L -460.2,-100.528 L -478.394,-97.6176 L -488.173,-96.2395 L -493.879,-94.0704 L -497.634,-92.5098 L -502.908,-90.0077
 L -5,-90.0077 z
M 727.859,-2.30757 L 727.283,-4.07043 L 696.72,-44.0106 L 695.916,-45.039 L 692.738,-48.2056 L 652.991,-78.4255
 L 651.777,-79.3682 L 610.362,-89.4626 L 607.638,-90.3442 L 566.581,-90.2614 L 563.498,-90.2581 L 522.8,-80.1481
 L 519.359,-79.0163 L 517.577,-77.6235 L 479.161,-48.2056 L 477.084,-46.1212 L 475.22,-44.3109 L 473.62,-42.279
 L 444.533,-4.07043 L 443.029,-0.00744629 L 470,-0.00741577 L 470,-22.143 L 475.2,-22.143 L 475.2,-0.00741577
 L 540,-0.00735474 L 540,-42.8563 L 545.2,-42.8563 L 545.2,-0.00735474 L 650,-0.00726318 L 650,-39.9006
 L 655.2,-39.9006 L 655.2,-0.00726318 L 728.427,-0.00720215 z
M 259.388,-4.07043 L 254.523,-11.8724 L 235.919,-39.8161 L 234.288,-42.403 L 230.204,-48.2056 L 211.873,-64.5936
 L 210.384,-65.9283 L 172.553,-82.2948 L 166.245,-85.3768 L 128.772,-87.9804 L 122.105,-88.4927 L 84.9913,-79.5763
 L 77.9661,-77.7 L 72.9432,-73.9496 L 38.2767,-48.2056 L 33.8268,-43.2736 L 30.4318,-38.2342 L 7.58742,-4.07043
 L 6.69853,-0.00782776 L 80,-0.00776672 L 80,-39.8132 L 85.2,-39.8132 L 85.2,-0.00776672 L 120,-0.00772095
 L 120,-44.2463 L 125.2,-44.2463 L 125.2,-0.00772095 L 220,-0.00762939 L 220,-28.664 L 225.2,-28.664
 L 225.2,-0.00762939 L 260.375,-0.00759888 z
M -5,-76.0504 L -43.2115,-80.547 L -55,-79.5784 L -55,-39.8132 L -60.2,-39.8132 L -60.2,-79.0708
 L -105,-74.6957 L -105,-37.3746 L -110.2,-37.3746 L -110.2,-74.1879 L -117.28,-73.4965 L -130.831,-69.0134
 L -180.412,-50.2187 L -184.814,-48.2056 L -191.349,-44.8732 L -195,-42.8674 L -195,-21.476 L -200.2,-21.476
 L -200.2,-39.5389 L -240.068,-13.6454 L -260.937,-4.07043 L -265.417,-0.262268 L -266.3,-0.00775146 L -5,-0.00769043
 z
" stroke="black" fill="lightgray" stroke-width="0.5"/></svg>
